	x
out_index 1 1 0	6.714246
out_index 1 1 1	5.4429167
out_index 1 2 0	0.2306983
out_index 1 2 1	0.1778791
out_index 1 3 0	0.0123668
out_index 1 3 1	0.0002339
out_index 1 3bis 0	0.0079176
out_index 1 3bis 1	0.0004303
out_index 1 4 0	0.0298578
out_index 1 4 1	0.0142682
out_index 1 4bis 0	0.0160513
out_index 1 4bis 1	0.0176113
out_index 1 5 0	0.1254115
out_index 1 5 1	0.125888
out_index 1 5bis 0	0.1532107
out_index 1 5bis 1	0.1536594
out_index 1 count 0	0.0516448
out_index 1 count 1	0.0496108
out_index 2 1 0	13.3724833
out_index 2 1 1	10.9166084
out_index 2 2 0	0.4587053
out_index 2 2 1	0.3896108
out_index 2 3 0	0.0062712
out_index 2 3 1	0.0002206
out_index 2 3bis 0	0.0107857
out_index 2 3bis 1	0.0007426
out_index 2 4 0	0.0418506
out_index 2 4 1	0.0154725
out_index 2 4bis 0	0.0260969
out_index 2 4bis 1	0.0276901
out_index 2 5 0	0.1299372
out_index 2 5 1	0.1302667
out_index 2 5bis 0	0.2142578
out_index 2 5bis 1	0.2138503
out_index 2 count 0	0.0618665
out_index 2 count 1	0.0510441
out_index 3 1 0	20.35349
out_index 3 1 1	16.4166007
out_index 3 2 0	0.7135065
out_index 3 2 1	0.5455798
out_index 3 3 0	0.0115307
out_index 3 3 1	0.0002368
out_index 3 3bis 0	0.0130624
out_index 3 3bis 1	0.0011561
out_index 3 4 0	0.0634496
out_index 3 4 1	0.01494
out_index 3 4bis 0	0.036548
out_index 3 4bis 1	0.036277
out_index 3 5 0	0.1308339
out_index 3 5 1	0.131538
out_index 3 5bis 0	0.2659887
out_index 3 5bis 1	0.2649453
out_index 3 count 0	0.0641856
out_index 3 count 1	0.0520465
out_index 4 1 0	59.6763459
out_index 4 1 1	57.6285732
out_index 4 2 0	2.0915325
out_index 4 2 1	1.9671452
out_index 4 3 0	0.0288022
out_index 4 3 1	0.0004366
out_index 4 3bis 0	0.0302642
out_index 4 3bis 1	0.0057511
out_index 4 4 0	0.1553392
out_index 4 4 1	0.0180003
out_index 4 4bis 0	0.0824581
out_index 4 4bis 1	0.0843759
out_index 4 5 0	0.1368706
out_index 4 5 1	0.1371228
out_index 4 5bis 0	0.6719972
out_index 4 5bis 1	0.6562699
out_index 4 count 0	0.0712938
out_index 4 count 1	0.0598548
out_index 5 1 0	383.0716452
out_index 5 1 1	382.3945546
out_index 5 2 0	6.4839794
out_index 5 2 1	4.1229047
out_index 5 3 0	0.2349671
out_index 5 3 1	0.0004903
out_index 5 3bis 0	0.041903
out_index 5 3bis 1	0.0118954
out_index 5 4 0	1.2362685
out_index 5 4 1	0.017305
out_index 5 4bis 0	0.1629283
out_index 5 4bis 1	0.1605783
out_index 5 5 0	0.432736
out_index 5 5 1	0.140324
out_index 5 5bis 0	1.3913745
out_index 5 5bis 1	1.3905262
out_index 5 count 0	0.1207281
out_index 5 count 1	0.0627879
out_mongo_loop 1 1 0	48.295122
out_mongo_loop 1 1 1	6.6800293
out_mongo_loop 1 2 0	0.6134372
out_mongo_loop 1 2 1	0.2764488
out_mongo_loop 1 3 0	0.0229803
out_mongo_loop 1 3 1	0.0003262
out_mongo_loop 1 3bis 0	0
out_mongo_loop 1 3bis 1	0
out_mongo_loop 1 4 0	0.1436117
out_mongo_loop 1 4 1	0.0191253
out_mongo_loop 1 4bis 0	7.897
out_mongo_loop 1 4bis 1	7.147
out_mongo_loop 1 5 0	0.11800505
out_mongo_loop 1 5 1	0.1478689
out_mongo_loop 1 5bis 0	0.087
out_mongo_loop 1 5bis 1	0.088
out_mongo_loop 2 1 0	18.6477952
out_mongo_loop 2 1 1	13.5345858
out_mongo_loop 2 2 0	0.6019638
out_mongo_loop 2 2 1	0.6243777
out_mongo_loop 2 3 0	0.0099119
out_mongo_loop 2 3 1	0.0002744
out_mongo_loop 2 3bis 0	0
out_mongo_loop 2 3bis 1	0
out_mongo_loop 2 4 0	0.0562437
out_mongo_loop 2 4 1	0.0218721
out_mongo_loop 2 4bis 0	2.659
out_mongo_loop 2 4bis 1	3.462
out_mongo_loop 2 5 0	0.1191511
out_mongo_loop 2 5 1	0.1177045
out_mongo_loop 2 5bis 0	0.184
out_mongo_loop 2 5bis 1	0.096
out_mongo_loop 3 1 0	24.9360962
out_mongo_loop 3 1 1	20.4968389
out_mongo_loop 3 2 0	0.8944184
out_mongo_loop 3 2 1	0.8786212
out_mongo_loop 3 3 0	0.0146821
out_mongo_loop 3 3 1	0.0002438
out_mongo_loop 3 3bis 0	0
out_mongo_loop 3 3bis 1	0
out_mongo_loop 3 4 0	0.0573787
out_mongo_loop 3 4 1	0.0199013
out_mongo_loop 3 4bis 0	0.795
out_mongo_loop 3 4bis 1	1.714
out_mongo_loop 3 5 0	0.1807429
out_mongo_loop 3 5 1	0.1210446
out_mongo_loop 3 5bis 0	0.109
out_mongo_loop 3 5bis 1	0.104
out_mongo_loop 4 1 0	73.8527235
out_mongo_loop 4 1 1	60.7460766
out_mongo_loop 4 2 0	2.755826
out_mongo_loop 4 2 1	2.8839137
out_mongo_loop 4 3 0	0.0448846
out_mongo_loop 4 3 1	0.0004568
out_mongo_loop 4 3bis 0	0
out_mongo_loop 4 3bis 1	0
out_mongo_loop 4 4 0	0.1712334
out_mongo_loop 4 4 1	0.0207993
out_mongo_loop 4 4bis 0	0.357
out_mongo_loop 4 4bis 1	0.227
out_mongo_loop 4 5 0	0.1310728
out_mongo_loop 4 5 1	0.12913245
out_mongo_loop 4 5bis 0	0.169
out_mongo_loop 4 5bis 1	0.172
out_mongo_loop 5 1 0	178.7592674
out_mongo_loop 5 1 1	179.592187
out_mongo_loop 5 2 0	6.4515239
out_mongo_loop 5 2 1	6.1440422
out_mongo_loop 5 3 0	0.0444887
out_mongo_loop 5 3 1	0.0002635
out_mongo_loop 5 3bis 0	0
out_mongo_loop 5 3bis 1	0
out_mongo_loop 5 4 0	0.3676353
out_mongo_loop 5 4 1	0.0216868
out_mongo_loop 5 4bis 0	0.173
out_mongo_loop 5 4bis 1	0
out_mongo_loop 5 5 0	0.14531375
out_mongo_loop 5 5 1	0.1343974
out_mongo_loop 5 5bis 0	0.289
out_mongo_loop 5 5bis 1	0.285
